Getting Started with caschooldata
…
Student Groups
SG_HM
homeless

Student Groups
SG_MG
migrant

# View all available subgroups for 2025
enr %>%
  filter(is_state, grade_level == "TOTAL", charter_status %in% c("All", NA)) %>%
  distinct(reporting_category, subgroup) %>%
  arrange(reporting_category)

## # A tibble: 33 × 2
##    reporting_category subgroup       
##    <chr>              <chr>          
##  1 AR_03              age_0_3        
##  2 AR_0418            age_4_18       
##  3 AR_1922            age_19_22      
##  4 AR_2329            age_23_29      
##  5 AR_3039            age_30_39      
##  6 AR_4049            age_40_49      
##  7 AR_50P             age_50_plus    
##  8 ELAS_ADEL          adult_el       
##  9 ELAS_EL            english_learner
## 10 ELAS_EO            english_only   
## # ℹ 23 more rows
…
