…
if (nrow(district_large_changes) > 0) {
  cat("Districts with year-over-year changes exceeding 5%:\n")
  district_large_changes %>%
    select(district_name, end_year, n_students, prev_year, pct_change) %>%
    print()
} else {
  cat("No major districts have year-over-year changes exceeding 5%.\n")
}
```

    ## Districts with year-over-year changes exceeding 5%:
    ## # A tibble: 21 × 5
    ##    district_name       end_year n_students prev_year pct_change
    ##    <chr>                  <int>      <dbl>     <dbl>      <dbl>
    ##  1 Fresno Unified          2024       3234     68246      -95.3
    ##  2 Fresno Unified          2025      71151      3234     2100. 
    ##  3 Fresno Unified          2025       3332     67819      -95.1
    ##  4 Long Beach Unified      2024        301     63966      -99.5
    ##  5 Long Beach Unified      2025      62947       301    20813. 
    ##  6 Long Beach Unified      2025        303     62644      -99.5
    ##  7 Los Angeles Unified     2024     381116    529902      -28.1
    ##  8 Los Angeles Unified     2024     148786    381116      -61.0
    ##  9 Los Angeles Unified     2025     516685    148786      247. 
    ## 10 Los Angeles Unified     2025     369830    516685      -28.4
    ## # ℹ 11 more rows
…
    ## WARNING: Grade totals do not match reported totals

## Demographic Subgroup Analysis

### Available Subgroups

``` r
enr %>%
  filter(is_state, grade_level == "TOTAL") %>%
  select(reporting_category, subgroup) %>%
  distinct() %>%
  arrange(reporting_category)
```

    ## # A tibble: 33 × 2
    ##    reporting_category subgroup       
    ##    <chr>              <chr>          
    ##  1 AR_03              age_0_3        
    ##  2 AR_0418            age_4_18       
    ##  3 AR_1922            age_19_22      
    ##  4 AR_2329            age_23_29      
    ##  5 AR_3039            age_30_39      
    ##  6 AR_4049            age_40_49      
    ##  7 AR_50P             age_50_plus    
    ##  8 ELAS_ADEL          adult_el       
    ##  9 ELAS_EL            english_learner
    ## 10 ELAS_EO            english_only   
    ## # ℹ 23 more rows
…
