California Enrollment Deep Dive: District Trends & Demographic Shifts • caschooldata
…
# Latest year breakdown
latest_race <- race_by_year %>%
  filter(end_year == max(end_year)) %>%
  arrange(desc(pct)) %>%
  select(subgroup, n_students, pct) %>%
  mutate(pct_fmt = sprintf("%.1f%%", pct))

latest_race

## # A tibble: 27 × 4
##    subgroup    n_students   pct pct_fmt
##    <chr>            <dbl> <dbl> <chr>  
##  1 hispanic       3257893 28.1  28.1%  
##  2 hispanic       2874736 24.8  24.8%  
##  3 white          1159523  9.99 10.0%  
##  4 white           973618  8.38 8.4%   
##  5 asian           586566  5.05 5.1%   
##  6 asian           545000  4.69 4.7%   
##  7 hispanic        383157  3.30 3.3%   
##  8 black           281645  2.43 2.4%   
##  9 multiracial     276901  2.38 2.4%   
## 10 multiracial     238214  2.05 2.1%   
## # ℹ 17 more rows
…
