…
## Demographic Breakdown

California enrollment data includes detailed demographic subgroups:

``` r
# State-level demographics for 2024
enr %>%
  filter(is_state, grade_level == "TOTAL") %>%
  select(subgroup, n_students) %>%
  arrange(desc(n_students))
```

    ## # A tibble: 97 × 2
    ##    subgroup                        n_students
    ##    <chr>                                <dbl>
    ##  1 total                              5837690
    ##  2 age_4_18                           5794728
    ##  3 total                              5128055
    ##  4 age_4_18                           5111687
    ##  5 socioeconomically_disadvantaged    3659382
    ##  6 english_only                       3539761
    ##  7 hispanic                           3275030
    ##  8 socioeconomically_disadvantaged    3217530
    ##  9 english_only                       3088646
    ## 10 male                               2997905
    ## # ℹ 87 more rows
…
