…
stopifnot(nrow(case_study) > 0)

case_study %>%
  dplyr::as_tibble() %>%
  select(end_year, label, grad_rate) %>%
  print(n = 30)
```

    ## # A tibble: 112 × 3
    ##    end_year label                          grad_rate
    ##       <dbl> <chr>                              <dbl>
    ##  1     2018 State Average                      0.835
    ##  2     2018 Claremont Unified                  0.946
    ##  3     2018 Claremont Unified                  0.571
    ##  4     2018 Claremont Unified                  0.96 
    ##  5     2018 Palos Verdes Peninsula Unified     0.983
    ##  6     2018 Palos Verdes Peninsula Unified     1    
    ##  7     2018 Palos Verdes Peninsula Unified     0.982
    ##  8     2018 Palos Verdes Peninsula Unified     0.983
    ##  9     2018 Manhattan Beach Unified            0.99 
    ## 10     2018 Manhattan Beach Unified            0.993
    ## 11     2018 Murrieta Valley Unified            0.976
    ## 12     2018 Murrieta Valley Unified            0.978
    ## 13     2018 Murrieta Valley Unified            0.899
    ## 14     2018 Murrieta Valley Unified            0.982
    ## 15     2018 Murrieta Valley Unified            0.986
    ## 16     2018 Tulare Joint Union High            0.961
    ## 17     2018 Tulare Joint Union High            0.957
    ## 18     2018 Tulare Joint Union High            0.976
    ## 19     2018 Tulare Joint Union High            0.874
    ## 20     2018 Tulare Joint Union High            0.765
    ## 21     2018 Tulare Joint Union High            0.985
    ## 22     2018 Tulare Joint Union High            0.957
    ## 23     2019 State Average                      0.858
    ## 24     2019 Claremont Unified                  0.943
    ## 25     2019 Claremont Unified                  0.762
    ## 26     2019 Claremont Unified                  0.95 
    ## 27     2019 Palos Verdes Peninsula Unified     0.981
    ## 28     2019 Palos Verdes Peninsula Unified     1    
    ## 29     2019 Palos Verdes Peninsula Unified     0.984
    ## 30     2019 Palos Verdes Peninsula Unified     0.978
    ## # ℹ 82 more rows
…
